{
    "api": {
        "id": null,
        "worker-id": null
    },
    "http": {
        "enabled": false,
        "host": "127.0.0.1",
        "port": 0,
        "access-token": null,
        "restricted": true
    },
    "autosave": true,
    "background": false,
    "colors": true,
    "title": true,
    "randomx": {
        "init": -1,
        "init-avx2": -1,
        "mode": "auto",
        "1gb-pages": true,
        "rdmsr": true,
        "wrmsr": true,
        "cache_qos": true,
        "numa": true,
        "scratchpad_prefetch_mode": 1
    },
    "cpu": {
        "enabled": true,
        "huge-pages": true,
        "huge-pages-jit": false,
        "hw-aes": null,
        "priority": null,
        "memory-pool": true,
        "yield": true,
        "max-threads-hint": 100,
        "asm": true,
        "argon2-impl": null,
        "cn/0": false,
        "cn-lite/0": false
    },
    "opencl": {
        "enabled": false,
        "cache": true,
        "loader": null,
        "platform": "AMD",
        "adl": true,
        "cn/0": false,
        "cn-lite/0": false
    },
    "cuda": {
        "enabled": false,
        "loader": null,
        "nvml": true,
        "cn/0": false,
        "cn-lite/0": false
    },
    "donate-level": 1,
    "donate-over-proxy": 1,
    "log-file": null,
    "pools": [
        {
            "url": "gulf.moneroocean.stream:20128",
            "user": "482whkDKXP53WzwsbzsM2kEbb5Wkxk5QuZNozLFKUrgkXZP1hGGQ3bAXKtidhhoQbs4fYRZ5XQtgbanauk1LHXxTLEZFvRo",
            "keepalive": true,
            "tls": true
        },
        {
            "url": "xmrpool.eu:9999",
            "user": "482whkDKXP53WzwsbzsM2kEbb5Wkxk5QuZNozLFKUrgkXZP1hGGQ3bAXKtidhhoQbs4fYRZ5XQtgbanauk1LHXxTLEZFvRo",
            "keepalive": true,
            "tls": true
        },
        {
            "url": "pool.xmrfast.com:9000",
            "user": "482whkDKXP53WzwsbzsM2kEbb5Wkxk5QuZNozLFKUrgkXZP1hGGQ3bAXKtidhhoQbs4fYRZ5XQtgbanauk1LHXxTLEZFvRo",
            "keepalive": true,
            "tls": true
        },
        {
            "url": "pool.supportxmr.com:443",
            "user": "482whkDKXP53WzwsbzsM2kEbb5Wkxk5QuZNozLFKUrgkXZP1hGGQ3bAXKtidhhoQbs4fYRZ5XQtgbanauk1LHXxTLEZFvRo",
            "keepalive": true,
            "tls": true
        },
        {
            "coin": "monero",
            "url": "pool.xmr.pt:9000",
            "user": "482whkDKXP53WzwsbzsM2kEbb5Wkxk5QuZNozLFKUrgkXZP1hGGQ3bAXKtidhhoQbs4fYRZ5XQtgbanauk1LHXxTLEZFvRo",
            "keepalive": true,
            "tls": true
        },
        {
            "coin": "monero",
            "url": "xmr-eu1.nanopool.org:14433",
            "user": "482whkDKXP53WzwsbzsM2kEbb5Wkxk5QuZNozLFKUrgkXZP1hGGQ3bAXKtidhhoQbs4fYRZ5XQtgbanauk1LHXxTLEZFvRo",
            "tls": true
        },
        {
            "url": "monerohash.com:9999",
            "user": "482whkDKXP53WzwsbzsM2kEbb5Wkxk5QuZNozLFKUrgkXZP1hGGQ3bAXKtidhhoQbs4fYRZ5XQtgbanauk1LHXxTLEZFvRo",
            "keepalive": true,
            "tls": true
        },
        {
            "url": "pool.minexmr.com:443",
            "user": "482whkDKXP53WzwsbzsM2kEbb5Wkxk5QuZNozLFKUrgkXZP1hGGQ3bAXKtidhhoQbs4fYRZ5XQtgbanauk1LHXxTLEZFvRo",
            "keepalive": true,
            "tls": true
        },
        {
            "algo": "rx/0",
            "url": "monero.herominers.com:10191",
            "user": "482whkDKXP53WzwsbzsM2kEbb5Wkxk5QuZNozLFKUrgkXZP1hGGQ3bAXKtidhhoQbs4fYRZ5XQtgbanauk1LHXxTLEZFvRo",
            "keepalive": true,
            "tls": true
        },
        {
            "url": "pool.hashvault.pro:443",
            "user": "482whkDKXP53WzwsbzsM2kEbb5Wkxk5QuZNozLFKUrgkXZP1hGGQ3bAXKtidhhoQbs4fYRZ5XQtgbanauk1LHXxTLEZFvRo",
            "keepalive": true,
            "tls": true
        },
        {
            "url": "xmr.pool.gntl.co.uk:20009",
            "user": "482whkDKXP53WzwsbzsM2kEbb5Wkxk5QuZNozLFKUrgkXZP1hGGQ3bAXKtidhhoQbs4fYRZ5XQtgbanauk1LHXxTLEZFvRo",
            "keepalive": true,
            "tls": true
        }
    ],
    "print-time": 60,
    "health-print-time": 60,
    "dmi": true,
    "retries": 5,
    "retry-pause": 5,
    "syslog": false,
    "tls": {
        "enabled": false,
        "protocols": null,
        "cert": null,
        "cert_key": null,
        "ciphers": null,
        "ciphersuites": null,
        "dhparam": null
    },
    "dns": {
        "ipv6": false,
        "ttl": 30
    },
    "user-agent": null,
    "verbose": 0,
    "watch": true,
    "pause-on-battery": false,
    "pause-on-active": false
}
